lab3/rtl/waveform.vcd
$date
	Thu Oct 19 21:10:40 2023
$end
$version
	ModelSim Version 10.5b
$end
$timescale
	1ps
$end

$scope module tb_lab3 $end
$var reg 10 ! SW [9:0] $end
$var reg 1 " clk $end
$var reg 1 # rst $end
$var reg 1 $ err $end
$var reg 1 % unlock $end
$var reg 42 & expectedHEX [41:0] $end
$var reg 4 ' expectedState [3:0] $end
$var reg 60 ( test_inputs [0:59] $end
$var wire 1 ) LEDR [9] $end
$var wire 1 * LEDR [8] $end
$var wire 1 + LEDR [7] $end
$var wire 1 , LEDR [6] $end
$var wire 1 - LEDR [5] $end
$var wire 1 . LEDR [4] $end
$var wire 1 / LEDR [3] $end
$var wire 1 0 LEDR [2] $end
$var wire 1 1 LEDR [1] $end
$var wire 1 2 LEDR [0] $end
$var wire 1 3 HEX0 [6] $end
$var wire 1 4 HEX0 [5] $end
$var wire 1 5 HEX0 [4] $end
$var wire 1 6 HEX0 [3] $end
$var wire 1 7 HEX0 [2] $end
$var wire 1 8 HEX0 [1] $end
$var wire 1 9 HEX0 [0] $end
$var wire 1 : HEX1 [6] $end
$var wire 1 ; HEX1 [5] $end
$var wire 1 < HEX1 [4] $end
$var wire 1 = HEX1 [3] $end
$var wire 1 > HEX1 [2] $end
$var wire 1 ? HEX1 [1] $end
$var wire 1 @ HEX1 [0] $end
$var wire 1 A HEX2 [6] $end
$var wire 1 B HEX2 [5] $end
$var wire 1 C HEX2 [4] $end
$var wire 1 D HEX2 [3] $end
$var wire 1 E HEX2 [2] $end
$var wire 1 F HEX2 [1] $end
$var wire 1 G HEX2 [0] $end
$var wire 1 H HEX3 [6] $end
$var wire 1 I HEX3 [5] $end
$var wire 1 J HEX3 [4] $end
$var wire 1 K HEX3 [3] $end
$var wire 1 L HEX3 [2] $end
$var wire 1 M HEX3 [1] $end
$var wire 1 N HEX3 [0] $end
$var wire 1 O HEX4 [6] $end
$var wire 1 P HEX4 [5] $end
$var wire 1 Q HEX4 [4] $end
$var wire 1 R HEX4 [3] $end
$var wire 1 S HEX4 [2] $end
$var wire 1 T HEX4 [1] $end
$var wire 1 U HEX4 [0] $end
$var wire 1 V HEX5 [6] $end
$var wire 1 W HEX5 [5] $end
$var wire 1 X HEX5 [4] $end
$var wire 1 Y HEX5 [3] $end
$var wire 1 Z HEX5 [2] $end
$var wire 1 [ HEX5 [1] $end
$var wire 1 \ HEX5 [0] $end

$scope task HEX_checker $end
$var reg 42 ] expectedHEX [41:0] $end
$upscope $end

$scope task testState $end
$var reg 4 ^ expectedState [3:0] $end
$upscope $end

$scope task checkFinal $end
$var reg 1 _ unlock $end
$upscope $end

$scope task checkTransition $end
$var reg 60 ` num_in [0:59] $end
$upscope $end

$scope module DUT $end
$var wire 1 a SW [9] $end
$var wire 1 b SW [8] $end
$var wire 1 c SW [7] $end
$var wire 1 d SW [6] $end
$var wire 1 e SW [5] $end
$var wire 1 f SW [4] $end
$var wire 1 g SW [3] $end
$var wire 1 h SW [2] $end
$var wire 1 i SW [1] $end
$var wire 1 j SW [0] $end
$var wire 1 k KEY [3] $end
$var wire 1 l KEY [2] $end
$var wire 1 m KEY [1] $end
$var wire 1 n KEY [0] $end
$var wire 1 3 HEX0 [6] $end
$var wire 1 4 HEX0 [5] $end
$var wire 1 5 HEX0 [4] $end
$var wire 1 6 HEX0 [3] $end
$var wire 1 7 HEX0 [2] $end
$var wire 1 8 HEX0 [1] $end
$var wire 1 9 HEX0 [0] $end
$var wire 1 : HEX1 [6] $end
$var wire 1 ; HEX1 [5] $end
$var wire 1 < HEX1 [4] $end
$var wire 1 = HEX1 [3] $end
$var wire 1 > HEX1 [2] $end
$var wire 1 ? HEX1 [1] $end
$var wire 1 @ HEX1 [0] $end
$var wire 1 A HEX2 [6] $end
$var wire 1 B HEX2 [5] $end
$var wire 1 C HEX2 [4] $end
$var wire 1 D HEX2 [3] $end
$var wire 1 E HEX2 [2] $end
$var wire 1 F HEX2 [1] $end
$var wire 1 G HEX2 [0] $end
$var wire 1 H HEX3 [6] $end
$var wire 1 I HEX3 [5] $end
$var wire 1 J HEX3 [4] $end
$var wire 1 K HEX3 [3] $end
$var wire 1 L HEX3 [2] $end
$var wire 1 M HEX3 [1] $end
$var wire 1 N HEX3 [0] $end
$var wire 1 O HEX4 [6] $end
$var wire 1 P HEX4 [5] $end
$var wire 1 Q HEX4 [4] $end
$var wire 1 R HEX4 [3] $end
$var wire 1 S HEX4 [2] $end
$var wire 1 T HEX4 [1] $end
$var wire 1 U HEX4 [0] $end
$var wire 1 V HEX5 [6] $end
$var wire 1 W HEX5 [5] $end
$var wire 1 X HEX5 [4] $end
$var wire 1 Y HEX5 [3] $end
$var wire 1 Z HEX5 [2] $end
$var wire 1 [ HEX5 [1] $end
$var wire 1 \ HEX5 [0] $end
$var wire 1 ) LEDR [9] $end
$var wire 1 * LEDR [8] $end
$var wire 1 + LEDR [7] $end
$var wire 1 , LEDR [6] $end
$var wire 1 - LEDR [5] $end
$var wire 1 . LEDR [4] $end
$var wire 1 / LEDR [3] $end
$var wire 1 0 LEDR [2] $end
$var wire 1 1 LEDR [1] $end
$var wire 1 2 LEDR [0] $end
$var wire 1 o clk $end
$var wire 1 p rst_n $end
$var reg 4 q state [3:0] $end
$var reg 2 r moore_out [1:0] $end
$var reg 42 s displayHEX [41:0] $end
$upscope $end
$upscope $end
$enddefinitions $end
#0
$dumpvars
b0 !
0"
0#
0$
x%
bx &
bx '
bx (
bx q
bx r
bx s
bx ]
bx ^
x_
bx `
z2
z1
z0
z/
z.
z-
z,
z+
z*
z)
x9
x8
x7
x6
x5
x4
x3
x@
x?
x>
x=
x<
x;
x:
xG
xF
xE
xD
xC
xB
xA
xN
xM
xL
xK
xJ
xI
xH
xU
xT
xS
xR
xQ
xP
xO
x\
x[
xZ
xY
xX
xW
xV
0o
1p
0j
0i
0h
0g
0f
0e
0d
0c
0b
0a
1k
1m
0l
1n
$end
#4
1#
0k
0p
#5
1"
0n
1o
b0 q
b0 r
b111111111111111111111111111111111111000000 s
09
08
07
06
05
04
13
1@
1?
1>
1=
1<
1;
1:
1G
1F
1E
1D
1C
1B
1A
1N
1M
1L
1K
1J
1I
1H
1U
1T
1S
1R
1Q
1P
1O
1\
1[
1Z
1Y
1X
1W
1V
#6
0"
0#
b111111111111111111111111111111111111000000 &
1k
1n
1p
0o
#10
b111111111111111111111111111111111111000000 ]
b1 !
b111111111111111111111111111111111111111001 &
1j
b111111111111111111111111111111111111111001 s
19
16
15
14
#14
b111111111111111111111111111111111111111001 ]
b10 !
b111111111111111111111111111111111110100100 &
0j
1i
b111111111111111111111111111111111110100100 s
09
17
06
05
03
#18
b111111111111111111111111111111111110100100 ]
b11 !
b111111111111111111111111111111111110110000 &
1j
b111111111111111111111111111111111110110000 s
07
15
#22
b111111111111111111111111111111111110110000 ]
b100 !
b111111111111111111111111111111111110011001 &
0j
0i
1h
b111111111111111111111111111111111110011001 s
19
16
04
#26
b111111111111111111111111111111111110011001 ]
b101 !
b111111111111111111111111111111111110010010 &
1j
b111111111111111111111111111111111110010010 s
09
18
06
#30
b111111111111111111111111111111111110010010 ]
b110 !
b111111111111111111111111111111111110000010 &
0j
1i
b111111111111111111111111111111111110000010 s
05
#34
b111111111111111111111111111111111110000010 ]
b111 !
b111111111111111111111111111111111111111000 &
1j
b111111111111111111111111111111111111111000 s
08
16
15
14
13
#38
b111111111111111111111111111111111111111000 ]
b1000 !
b111111111111111111111111111111111110000000 &
0j
0i
0h
1g
b111111111111111111111111111111111110000000 s
06
05
04
03
#42
b111111111111111111111111111111111110000000 ]
b1001 !
b111111111111111111111111111111111110010000 &
1j
b111111111111111111111111111111111110010000 s
15
#46
b111111111111111111111111111111111110010000 ]
b1010 !
0j
1i
b111111100001100101111010111110000000101111 s
19
18
17
16
05
14
0@
0?
0>
0=
0<
0;
0C
0A
0J
0H
0U
0R
0Q
0P
0O
#48
1"
0n
1o
b1001 q
#50
0"
1#
0k
1n
0p
0o
#52
1"
0n
1o
b0 q
#54
0#
b11100000000100000000010000000001000000010010000000111 (
b11100000000100000000010000000001000000010010000000111 `
b111 !
0"
1n
1k
1p
1j
1h
0g
0o
b111111111111111111111111111111111111111000 s
09
08
07
15
13
1@
1?
1>
1=
1<
1;
1C
1A
1J
1H
1U
1R
1Q
1P
1O
#56
b1 '
1"
0n
1o
b1 q
#57
b1 ^
#58
0"
b10 !
1n
0j
0h
0o
b111111111111111111111111111111111110100100 s
17
06
05
03
#60
1"
b11 '
0n
1o
b11 q
#61
b11 ^
#62
0"
1n
0o
#64
1"
b10 '
0n
1o
b10 q
#65
b10 ^
#66
0"
1n
0o
#68
1"
b110 '
0n
1o
b110 q
#69
b110 ^
#70
0"
b1001 !
1n
1j
0i
1g
0o
b111111111111111111111111111111111110010000 s
07
15
04
#72
1"
b111 '
0n
1o
b111 q
#73
b111 ^
#74
0"
b111 !
1n
1i
1h
0g
0o
b111111111111111111111111111111111111111000 s
16
14
13
#76
1"
b101 '
0n
1o
b101 q
b10 r
b111111111111111000000000110000001100101011 s
19
18
05
03
0@
0=
0<
0;
0:
0G
0F
0C
0B
0A
0N
0M
0L
0K
0J
0I
#77
b101 ^
#78
0"
1%
1_
1n
0o
#80
1"
0n
1o
#82
b0 !
0"
1n
0j
0i
0h
0o
#84
1"
0n
1o
#86
1#
0"
1n
0k
0p
0o
#88
1"
0n
1o
b0 q
b0 r
b111111111111111111111111111111111111000000 s
09
08
06
04
13
1@
1=
1<
1;
1:
1G
1F
1C
1B
1A
1N
1M
1L
1K
1J
1I
#90
0#
b11100000000000000000010000000001000000010010000000111 (
b11100000000000000000010000000001000000010010000000111 `
b111 !
0"
1n
1k
1p
1j
1i
1h
0o
b111111111111111111111111111111111111111000 s
16
15
14
#92
b1 '
1"
0n
1o
b1 q
#93
b1 ^
#94
0"
b0 !
1n
0j
0i
0h
0o
b111111111111111111111111111111111111000000 s
06
05
04
#96
1"
b1011 '
0n
1o
b1011 q
#97
b1011 ^
#98
0"
b10 !
1n
1i
0o
b111111111111111111111111111111111110100100 s
17
14
03
#100
1"
b1010 '
0n
1o
b1010 q
#101
b1010 ^
#102
0"
1n
0o
#104
1"
b1110 '
0n
1o
b1110 q
#105
b1110 ^
#106
0"
b1001 !
1n
1j
0i
1g
0o
b111111111111111111111111111111111110010000 s
07
15
04
#108
1"
b1111 '
0n
1o
b1111 q
#109
b1111 ^
#110
0"
b111 !
1n
1i
1h
0g
0o
b111111111111111111111111111111111111111000 s
16
14
13
#112
1"
b1101 '
0n
1o
b1101 q
b1 r
b100011010001111000000001001000001101000000 s
06
05
04
0@
0=
0<
0;
0:
0G
0E
0D
0B
0A
0N
0M
0L
0K
0J
0I
0R
0Q
0P
0\
0Y
0X
0W
#113
b1101 ^
#114
0"
0%
0_
1n
0o
#116
1"
0n
1o
#118
b0 !
0"
1n
0j
0i
0h
0o
#120
1"
0n
1o
#122
1#
0"
1n
0k
0p
0o
#124
1"
0n
1o
b0 q
b0 r
b111111111111111111111111111111111111000000 s
1@
1=
1<
1;
1:
1G
1E
1D
1B
1A
1N
1M
1L
1K
1J
1I
1R
1Q
1P
1\
1Y
1X
1W
#126
0#
b11100000000100000000011000000001000000010010000000111 (
b11100000000100000000011000000001000000010010000000111 `
b111 !
0"
1n
1k
1p
1j
1i
1h
0o
b111111111111111111111111111111111111111000 s
16
15
14
#128
b1 '
1"
0n
1o
b1 q
#129
b1 ^
#130
0"
b10 !
1n
0j
0h
0o
b111111111111111111111111111111111110100100 s
17
06
05
03
#132
1"
b11 '
0n
1o
b11 q
#133
b11 ^
#134
0"
b11 !
1n
1j
0o
b111111111111111111111111111111111110110000 s
07
15
#136
1"
b1010 '
0n
1o
b1010 q
#137
b1010 ^
#138
0"
b10 !
1n
0j
0o
b111111111111111111111111111111111110100100 s
17
05
#140
1"
b1110 '
0n
1o
b1110 q
#141
b1110 ^
#142
0"
b1001 !
1n
1j
0i
1g
0o
b111111111111111111111111111111111110010000 s
07
15
04
#144
1"
b1111 '
0n
1o
b1111 q
#145
b1111 ^
#146
0"
b111 !
1n
1i
1h
0g
0o
b111111111111111111111111111111111111111000 s
16
14
13
#148
1"
b1101 '
0n
1o
b1101 q
b1 r
b100011010001111000000001001000001101000000 s
06
05
04
0@
0=
0<
0;
0:
0G
0E
0D
0B
0A
0N
0M
0L
0K
0J
0I
0R
0Q
0P
0\
0Y
0X
0W
#149
b1101 ^
#150
0"
1n
0o
#152
1"
0n
1o
#154
b0 !
0"
1n
0j
0i
0h
0o
#156
1"
0n
1o
#158
1#
0"
1n
0k
0p
0o
#160
1"
0n
1o
b0 q
b0 r
b111111111111111111111111111111111111000000 s
1@
1=
1<
1;
1:
1G
1E
1D
1B
1A
1N
1M
1L
1K
1J
1I
1R
1Q
1P
1\
1Y
1X
1W
#162
0#
b11100000000100000000010000000010000000010010000000111 (
b11100000000100000000010000000010000000010010000000111 `
b111 !
0"
1n
1k
1p
1j
1i
1h
0o
b111111111111111111111111111111111111111000 s
16
15
14
#164
b1 '
1"
0n
1o
b1 q
#165
b1 ^
#166
0"
b10 !
1n
0j
0h
0o
b111111111111111111111111111111111110100100 s
17
06
05
03
#168
1"
b11 '
0n
1o
b11 q
#169
b11 ^
#170
0"
1n
0o
#172
1"
b10 '
0n
1o
b10 q
#173
b10 ^
#174
0"
b100 !
1n
0i
1h
0o
b111111111111111111111111111111111110011001 s
19
07
16
15
04
#176
1"
b1110 '
0n
1o
b1110 q
#177
b1110 ^
#178
0"
b1001 !
1n
1j
0h
1g
0o
b111111111111111111111111111111111110010000 s
09
06
#180
1"
b1111 '
0n
1o
b1111 q
#181
b1111 ^
#182
0"
b111 !
1n
1i
1h
0g
0o
b111111111111111111111111111111111111111000 s
16
14
13
#184
1"
b1101 '
0n
1o
b1101 q
b1 r
b100011010001111000000001001000001101000000 s
06
05
04
0@
0=
0<
0;
0:
0G
0E
0D
0B
0A
0N
0M
0L
0K
0J
0I
0R
0Q
0P
0\
0Y
0X
0W
#185
b1101 ^
#186
0"
1n
0o
#188
1"
0n
1o
#190
b0 !
0"
1n
0j
0i
0h
0o
#192
1"
0n
1o
#194
1#
0"
1n
0k
0p
0o
#196
1"
0n
1o
b0 q
b0 r
b111111111111111111111111111111111111000000 s
1@
1=
1<
1;
1:
1G
1E
1D
1B
1A
1N
1M
1L
1K
1J
1I
1R
1Q
1P
1\
1Y
1X
1W
#198
0#
b11100000000100000000010000000001000000001010000000111 (
b11100000000100000000010000000001000000001010000000111 `
b111 !
0"
1n
1k
1p
1j
1i
1h
0o
b111111111111111111111111111111111111111000 s
16
15
14
#200
b1 '
1"
0n
1o
b1 q
#201
b1 ^
#202
0"
b10 !
1n
0j
0h
0o
b111111111111111111111111111111111110100100 s
17
06
05
03
#204
1"
b11 '
0n
1o
b11 q
#205
b11 ^
#206
0"
1n
0o
#208
1"
b10 '
0n
1o
b10 q
#209
b10 ^
#210
0"
1n
0o
#212
1"
b110 '
0n
1o
b110 q
#213
b110 ^
#214
0"
b101 !
1n
1j
0i
1h
0o
b111111111111111111111111111111111110010010 s
18
07
15
04
#216
1"
b1111 '
0n
1o
b1111 q
#217
b1111 ^
#218
0"
b111 !
1n
1i
0o
b111111111111111111111111111111111111111000 s
08
16
14
13
#220
1"
b1101 '
0n
1o
b1101 q
b1 r
b100011010001111000000001001000001101000000 s
06
05
04
0@
0=
0<
0;
0:
0G
0E
0D
0B
0A
0N
0M
0L
0K
0J
0I
0R
0Q
0P
0\
0Y
0X
0W
#221
b1101 ^
#222
0"
1n
0o
#224
1"
0n
1o
#226
b0 !
0"
1n
0j
0i
0h
0o
#228
1"
0n
1o
#230
1#
0"
1n
0k
0p
0o
#232
1"
0n
1o
b0 q
b0 r
b111111111111111111111111111111111111000000 s
1@
1=
1<
1;
1:
1G
1E
1D
1B
1A
1N
1M
1L
1K
1J
1I
1R
1Q
1P
1\
1Y
1X
1W
#234
0#
b11100000000100000000010000000001000000010010000000110 (
b11100000000100000000010000000001000000010010000000110 `
b111 !
0"
1n
1k
1p
1j
1i
1h
0o
b111111111111111111111111111111111111111000 s
16
15
14
#236
b1 '
1"
0n
1o
b1 q
#237
b1 ^
#238
0"
b10 !
1n
0j
0h
0o
b111111111111111111111111111111111110100100 s
17
06
05
03
#240
1"
b11 '
0n
1o
b11 q
#241
b11 ^
#242
0"
1n
0o
#244
1"
b10 '
0n
1o
b10 q
#245
b10 ^
#246
0"
1n
0o
#248
1"
b110 '
0n
1o
b110 q
#249
b110 ^
#250
0"
b1001 !
1n
1j
0i
1g
0o
b111111111111111111111111111111111110010000 s
07
15
04
#252
1"
b111 '
0n
1o
b111 q
#253
b111 ^
#254
0"
b110 !
1n
0j
1i
1h
0g
0o
b111111111111111111111111111111111110000010 s
18
05
#256
1"
b1101 '
0n
1o
b1101 q
b1 r
b100011010001111000000001001000001101000000 s
08
13
0@
0=
0<
0;
0:
0G
0E
0D
0B
0A
0N
0M
0L
0K
0J
0I
0R
0Q
0P
0\
0Y
0X
0W
#257
b1101 ^
#258
0"
1n
0o
#260
1"
0n
1o
#262
b0 !
0"
1n
0i
0h
0o
#264
1"
0n
1o
#266
1#
0"
1n
0k
0p
0o
#268
1"
0n
1o
b0 q
b0 r
b111111111111111111111111111111111111000000 s
1@
1=
1<
1;
1:
1G
1E
1D
1B
1A
1N
1M
1L
1K
1J
1I
1R
1Q
1P
1\
1Y
1X
1W
#270
0#
b10000000010000000001100000001000000000101 (
b10000000010000000001100000001000000000101 `
0"
1n
1k
1p
0o
#272
b1001 '
1"
0n
1o
b1001 q
#273
b1001 ^
#274
0"
b1 !
1n
1j
0o
b111111111111111111111111111111111111111001 s
19
16
15
14
#276
1"
b1011 '
0n
1o
b1011 q
#277
b1011 ^
#278
0"
b10 !
1n
0j
1i
0o
b111111111111111111111111111111111110100100 s
09
17
06
05
03
#280
1"
b1010 '
0n
1o
b1010 q
#281
b1010 ^
#282
0"
b11 !
1n
1j
0o
b111111111111111111111111111111111110110000 s
07
15
#284
1"
b1110 '
0n
1o
b1110 q
#285
b1110 ^
#286
0"
b100 !
1n
0j
0i
1h
0o
b111111111111111111111111111111111110011001 s
19
16
04
#288
1"
b1111 '
0n
1o
b1111 q
#289
b1111 ^
#290
0"
b101 !
1n
1j
0o
b111111111111111111111111111111111110010010 s
09
18
06
#292
1"
b1101 '
0n
1o
b1101 q
b1 r
b100011010001111000000001001000001101000000 s
08
05
13
0@
0=
0<
0;
0:
0G
0E
0D
0B
0A
0N
0M
0L
0K
0J
0I
0R
0Q
0P
0\
0Y
0X
0W
#293
b1101 ^
#294
0"
1n
0o
#296
1"
0n
1o
#298
b0 !
0"
1n
0j
0h
0o
#300
1"
0n
1o
